[gd_scene load_steps=2 format=2]

[ext_resource path="res://Graphics/Fonts/Aniron.tres" type="DynamicFont" id=1]

[node name="Continuer" type="Button"]
margin_right = 1280.0
margin_bottom = 80.0
rect_min_size = Vector2( 360, 60 )
flat = true
__meta__ = {
"_edit_use_anchors_": false
}

[node name="Continuer" type="Label" parent="."]
margin_left = 2.0
margin_right = 292.0
margin_bottom = 83.0
custom_fonts/font = ExtResource( 1 )
custom_colors/font_color = Color( 1, 1, 1, 1 )
text = "Continuer"
align = 1
__meta__ = {
"_edit_use_anchors_": false
}
